{
  "type": "postgres",
  "host": "localhost",
  "port": 5432,
  "username": "admin",
  "password": "str0ng+passw0rd",
  "database": "db_probox",
  "entities": ["src/common/entities/*{.ts,.js}"],
  "migrations": ["src/modules/database/migrations/*{.ts,.js}"],
  "cli": {
    "migrationsDir": "src/modules/database/migrations"
  }
}
